[
  {
    "text": "HOME",
    "sref": "app.dashboard",
    "icon": "icon-home"
  },
  {
    "text": "RESTAURANTS",
    "sref": "app.restaurant-overview",
    "icon": "icon-small-restaurant"
  },
  {
    "text": "MENUS",
    "sref": "app.menus",
    "icon": "icon-small-menu"
  }
]