<?xml version="1.0" encoding="UTF-8" standalone="no"?>
<svg width="16px" height="18px" viewBox="0 0 16 18" version="1.1" xmlns="http://www.w3.org/2000/svg" xmlns:xlink="http://www.w3.org/1999/xlink">
    <!-- Generator: Sketch 3.8.3 (29802) - http://www.bohemiancoding.com/sketch -->
    <title>@Icons/Trash@2x</title>
    <desc>Created with Sketch.</desc>
    <defs></defs>
    <g id="Symbols" stroke="none" stroke-width="1" fill="none" fill-rule="evenodd">
        <g id="@Icons/Trash" fill="#4A4A4A">
            <path d="M15.6750187,3.20943004 C15.6750187,3.0088395 15.5191591,2.85282463 15.3187683,2.85282463 L11.8787251,2.85282463 L11.0994273,0.99179011 C10.8767708,0.445738066 10.2088012,-1.87046762e-05 9.61876147,-1.87046762e-05 L6.05625722,-1.87046762e-05 C5.46621745,-1.87046762e-05 4.79824791,0.445738066 4.57559139,0.99179011 L3.79629359,2.85282463 L0.356250425,2.85282463 C0.155859561,2.85282463 0,3.0088395 0,3.20943004 L0,3.92264088 C0,4.12323142 0.155859561,4.27924629 0.356250425,4.27924629 L1.4250017,4.27924629 L1.4250017,14.8882574 C1.4250017,16.1140886 2.22656515,17.1170413 3.20625382,17.1170413 L12.4687649,17.1170413 C13.4484535,17.1170413 14.250017,16.0695129 14.250017,14.8436818 L14.250017,4.27924629 L15.3187683,4.27924629 C15.5191591,4.27924629 15.6750187,4.12323142 15.6750187,3.92264088 L15.6750187,3.20943004 Z M12.8250153,14.8436818 C12.8250153,15.3785899 12.524429,15.6906196 12.4687649,15.6906196 L3.20625382,15.6906196 C3.15058969,15.6906196 2.8500034,15.3785899 2.8500034,14.8436818 L2.8500034,4.27924629 L12.8250153,4.27924629 L12.8250153,14.8436818 Z M11.4000136,6.77548421 C11.4000136,6.57489366 11.244154,6.41887879 11.0437632,6.41887879 L10.3312623,6.41887879 C10.1308715,6.41887879 9.97501189,6.57489366 9.97501189,6.77548421 L9.97501189,13.1943817 C9.97501189,13.3949723 10.1308715,13.5509871 10.3312623,13.5509871 L11.0437632,13.5509871 C11.244154,13.5509871 11.4000136,13.3949723 11.4000136,13.1943817 L11.4000136,6.77548421 Z M8.55001019,6.77548421 C8.55001019,6.57489366 8.39415063,6.41887879 8.19375977,6.41887879 L7.48125892,6.41887879 C7.28086805,6.41887879 7.12500849,6.57489366 7.12500849,6.77548421 L7.12500849,13.1943817 C7.12500849,13.3949723 7.28086805,13.5509871 7.48125892,13.5509871 L8.19375977,13.5509871 C8.39415063,13.5509871 8.55001019,13.3949723 8.55001019,13.1943817 L8.55001019,6.77548421 Z M5.70000679,6.77548421 C5.70000679,6.57489366 5.54414723,6.41887879 5.34375637,6.41887879 L4.63125552,6.41887879 C4.43086466,6.41887879 4.2750051,6.57489366 4.2750051,6.77548421 L4.2750051,13.1943817 C4.2750051,13.3949723 4.43086466,13.5509871 4.63125552,13.5509871 L5.34375637,13.5509871 C5.54414723,13.5509871 5.70000679,13.3949723 5.70000679,13.1943817 L5.70000679,6.77548421 Z"></path>
        </g>
    </g>
</svg>