<?xml version="1.0" encoding="UTF-8" standalone="no"?>
<svg width="10px" height="10px" viewBox="0 0 10 10" version="1.1" xmlns="http://www.w3.org/2000/svg" xmlns:xlink="http://www.w3.org/1999/xlink">
    <!-- Generator: Sketch 3.8.3 (29802) - http://www.bohemiancoding.com/sketch -->
    <title>@Icons/close01@2x</title>
    <desc>Created with Sketch.</desc>
    <defs></defs>
    <g id="Symbols" stroke="none" stroke-width="1" fill="none" fill-rule="evenodd">
        <g id="@Icons/close01" fill="#4A4A4A">
            <polygon points="9.98854167 8.18854167 8.1875 9.98958333 5 6.80104167 1.81145833 9.98854167 0.0104166667 8.1875 3.2 5 0.0114583333 1.81145833 1.8125 0.0114583333 5 3.19895833 8.18854167 0.0104166667 9.98958333 1.81145833 6.8 5"></polygon>
        </g>
    </g>
</svg>