<?xml version="1.0" encoding="UTF-8" standalone="no"?>
<svg width="10px" height="9px" viewBox="0 0 10 9" version="1.1" xmlns="http://www.w3.org/2000/svg" xmlns:xlink="http://www.w3.org/1999/xlink">
    <!-- Generator: Sketch 3.8.3 (29802) - http://www.bohemiancoding.com/sketch -->
    <title>@Icons/Edit_pencil@2x</title>
    <desc>Created with Sketch.</desc>
    <defs></defs>
    <g id="Symbols" stroke="none" stroke-width="1" fill="none" fill-rule="evenodd">
        <g id="@Icons/Edit_pencil">
            <g transform="translate(0.000000, -1.000000)" id="Path">
                <path d="M5.24107413,2.5520896 L0.5586,7.18402987 L0.5586,9.5 L2.89983707,9.5 L7.5823112,4.86805973 L5.24107413,2.5520896 Z M5.54498471,3.62099889 C5.54498471,3.65440231 5.53372877,3.68780572 5.5055889,3.7156419 L2.45522714,6.73308376 C2.42708727,6.76091994 2.39331943,6.77205441 2.35955159,6.77205441 C2.28638793,6.77205441 2.23573617,6.72194929 2.23573617,6.64957522 C2.23573617,6.61617181 2.24699212,6.58276839 2.27513198,6.55493221 L5.32549374,3.53749035 C5.35363361,3.50965417 5.38740145,3.4985197 5.42116929,3.4985197 C5.49433295,3.4985197 5.54498471,3.54862483 5.54498471,3.62099889 Z M2.60155446,8.78739381 L1.99936127,8.78739381 L1.99936127,8.07478761 L1.27898064,8.07478761 L1.27898064,7.47909337 L1.79112624,6.9724749 L3.11370007,8.28077534 L2.60155446,8.78739381 Z" fill="#FD6960"></path>
                <path d="M9.08498018,3.08654425 C9.08498018,2.89725823 9.00618855,2.71353944 8.87674515,2.57992578 L7.55417133,1.27719258 C7.41909996,1.14357892 7.23337683,1.06563762 7.04202572,1.06563762 C6.85067462,1.06563762 6.66495148,1.14357892 6.53550809,1.27719258 L5.60126445,2.1957865 L7.94250152,4.51175664 L8.87674515,3.58759548 C9.00618855,3.45954905 9.08498018,3.27583027 9.08498018,3.08654425 L9.08498018,3.08654425 Z" fill="#F44336"></path>
            </g>
        </g>
    </g>
</svg>