<?xml version="1.0" encoding="UTF-8" standalone="no"?>
<svg width="22px" height="20px" viewBox="0 0 22 20" version="1.1" xmlns="http://www.w3.org/2000/svg" xmlns:xlink="http://www.w3.org/1999/xlink">
    <!-- Generator: Sketch 3.8.3 (29802) - http://www.bohemiancoding.com/sketch -->
    <title>@Icons/notifications@2x</title>
    <desc>Created with Sketch.</desc>
    <defs></defs>
    <g id="Symbols" stroke="none" stroke-width="1" fill="none" fill-rule="evenodd">
        <g id="@Navigation/Header-" transform="translate(-857.000000, -20.000000)" fill="#FD6960">
            <g id="@Icons/notifications" transform="translate(857.000000, 20.000000)">
                <g id="Notifications">
                    <path d="M21.233973,18.9937994 L0.766293801,18.9937994 C0.503153639,18.9937994 0.289528302,19.2125228 0.289528302,19.4825532 C0.289528302,19.7525836 0.503183288,19.971307 0.766293801,19.971307 L21.233973,19.971307 C21.4974097,19.971307 21.7107385,19.7525836 21.7107385,19.4825532 C21.7107385,19.2125228 21.4974097,18.9937994 21.233973,18.9937994 L21.233973,18.9937994 Z" id="Shape"></path>
                    <path d="M12.7486146,1.82115502 C12.7486146,0.832705167 11.9640566,0.028662614 10.9998518,0.028662614 C10.0356469,0.028662614 9.25132615,0.832735562 9.25132615,1.82115502 C9.25132615,2.28753799 9.4271779,2.71139818 9.71267385,3.03051672 C4.26387871,3.68620061 0.0213180593,8.4456231 0.0213180593,14.204924 C0.0213180593,14.3560486 0.0266549865,14.5060486 0.0324959569,14.6549848 C0.042606469,14.917386 0.252792453,15.1246505 0.508757412,15.1246505 L10.5231159,15.1246505 L10.5231159,16.5603647 C10.5231159,16.6105471 10.5326927,16.6580243 10.5465391,16.7038602 L0.766293801,16.7038602 C0.503153639,16.7038602 0.289528302,16.9225836 0.289528302,17.192614 C0.289528302,17.462614 0.503183288,17.6813678 0.766293801,17.6813678 L21.233973,17.6813678 C21.4974097,17.6813678 21.7107385,17.462614 21.7107385,17.192614 C21.7107385,16.9225836 21.4974097,16.7038602 21.233973,16.7038602 L11.4531941,16.7038602 C11.4670404,16.6580243 11.4766469,16.6105775 11.4766469,16.5603647 L11.4766469,15.1246505 L21.4909757,15.1246505 C21.7469407,15.1246505 21.9571563,14.917386 21.9672372,14.6549848 C21.9730782,14.506079 21.9787116,14.3560486 21.9787116,14.204924 C21.9786819,8.4456231 17.7361213,3.68620061 12.2870296,3.03051672 C12.5727628,2.71139818 12.7486146,2.28756839 12.7486146,1.82115502 Z M10.9998814,1.00620061 C11.4383396,1.00620061 11.7951132,1.37167173 11.7951132,1.82118541 C11.7951132,2.27069909 11.4383396,2.63613982 10.9998814,2.63613982 C10.5614232,2.63613982 10.2048868,2.27066869 10.2048868,1.82118541 C10.2048868,1.37170213 10.5614232,1.00620061 10.9998814,1.00620061 L10.9998814,1.00620061 Z M0.974878706,14.1470821 C1.00547709,8.50671733 5.49089757,3.92784195 10.9998814,3.92784195 C16.5088059,3.92784195 20.9945229,8.50671733 21.0248841,14.1470821 L0.974878706,14.1470821 L0.974878706,14.1470821 Z" id="Shape"></path>
                    <path d="M9.84360647,5.86109422 C4.0116496,7.17027356 3.22359299,12.3688146 3.21615094,12.4211854 C3.17891105,12.6885106 3.36036658,12.9361094 3.62080863,12.973769 C3.64369811,12.9776292 3.66632075,12.978693 3.68867655,12.978693 C3.92225606,12.978693 4.12606739,12.8030395 4.16010512,12.5592097 C4.16650943,12.5133739 4.85503235,7.98197568 10.0479515,6.8162614 C10.3049542,6.75844985 10.4677898,6.49768997 10.4113962,6.23422492 C10.3554771,5.97072948 10.103248,5.80325228 9.84360647,5.86109422 L9.84360647,5.86109422 Z" id="Shape"></path>
                </g>
            </g>
        </g>
    </g>
</svg>